<?xml version="1.0" encoding="UTF-8" standalone="no"?>
<svg
   width="512"
   height="512"
   viewBox="0 0 512 512"
   fill="none"
   version="1.1"
   id="svg5441"
   sodipodi:docname="delete.svg"
   inkscape:version="1.2.1 (9c6d41e410, 2022-07-14)"
   xmlns:inkscape="http://www.inkscape.org/namespaces/inkscape"
   xmlns:sodipodi="http://sodipodi.sourceforge.net/DTD/sodipodi-0.dtd"
   xmlns="http://www.w3.org/2000/svg"
   xmlns:svg="http://www.w3.org/2000/svg">
  <defs
     id="defs5445" />
  <sodipodi:namedview
     id="namedview5443"
     pagecolor="#ffffff"
     bordercolor="#666666"
     borderopacity="1.0"
     inkscape:showpageshadow="2"
     inkscape:pageopacity="0.0"
     inkscape:pagecheckerboard="0"
     inkscape:deskcolor="#d1d1d1"
     showgrid="false"
     inkscape:zoom="1.1341146"
     inkscape:cx="418.82893"
     inkscape:cy="279.5132"
     inkscape:window-width="1920"
     inkscape:window-height="1051"
     inkscape:window-x="0"
     inkscape:window-y="0"
     inkscape:window-maximized="1"
     inkscape:current-layer="svg5441" />
  <g
     id="g238"
     transform="matrix(23.59681,0,0,23.587864,-30.712006,-28.675728)">
    <g
       id="g790"
       transform="matrix(1.2581443,0,0,1.1144153,-2.9470408,-1.3432459)">
      <ellipse
         cx="12"
         cy="7"
         rx="7"
         ry="3"
         stroke="#ffffff"
         stroke-width="2"
         stroke-linecap="round"
         id="ellipse5437"
         style="fill:none;stroke:#000000;stroke-opacity:1" />
      <path
         d="m 5,7 1.99621,10.9792 c 0.00247,0.0135 0.00901,0.026 0.01876,0.0358 v 0 c 2.75316,2.7531 7.21693,2.7531 9.97003,0 v 0 c 0.0098,-0.0098 0.0163,-0.0223 0.0188,-0.0358 L 19,7"
         stroke="#ffffff"
         stroke-width="2"
         stroke-linecap="round"
         id="path5439"
         style="fill:none;stroke:#000000;stroke-opacity:1" />
    </g>
  </g>
</svg>
